{
  "project_info": {
    "project_number": "930504559852",
    "firebase_url": "https://sfafirebaseproject.firebaseio.com",
    "project_id": "sfafirebaseproject",
    "storage_bucket": "sfafirebaseproject.appspot.com"
  },
  "client": [
    {
      "client_info": {
        "mobilesdk_app_id": "1:930504559852:android:be9f7a9482cc94d8",
        "android_client_info": {
          "package_name": "myskysfa.com.sfa"
        }
      },
      "oauth_client": [
        {
          "client_id": "930504559852-109g6vh054c67u83hju5kh42pbvcd4jo.apps.googleusercontent.com",
          "client_type": 1,
          "android_info": {
            "package_name": "myskysfa.com.sfa",
            "certificate_hash": "813C683BB2D24EC2D47656083E584DEF7AA56885"
          }
        },
        {
          "client_id": "930504559852-blgcnpfs4ee7n3t2ssb8fj4ekekukp5n.apps.googleusercontent.com",
          "client_type": 3
        }
      ],
      "api_key": [
        {
          "current_key": "AIzaSyA8q9r4N_Z-FXjRxM2AqflgxJrcilQj5Dg"
        }
      ],
      "services": {
        "analytics_service": {
          "status": 1
        },
        "appinvite_service": {
          "status": 2,
          "other_platform_oauth_client": [
            {
              "client_id": "930504559852-blgcnpfs4ee7n3t2ssb8fj4ekekukp5n.apps.googleusercontent.com",
              "client_type": 3
            }
          ]
        },
        "ads_service": {
          "status": 2
        }
      }
    }
  ],
  "configuration_version": "1"
}